# This file uses meters as units for non-parametric coordinates.

mtllib Tile_Straight.mtl
g default
v 300.000000 -0.000000 0.000000
v 1500.000000 -0.000000 0.000000
v 300.000000 0.000000 -1200.000000
v 1500.000000 0.000000 -1200.000000
v 1000.000008 -0.000000 0.000000
v 1000.000008 0.000000 -1200.000000
v 800.000004 -0.000000 0.000000
v 800.000004 0.000000 -1200.000000
vt 0.000000 0.000000
vt 1.000000 0.000000
vt 0.000000 1.000000
vt 1.000000 1.000000
vt 0.600000 0.000000
vt 0.600000 1.000000
vt 0.400000 0.000000
vt 0.400000 1.000000
vn 0.000000 1.000000 0.000000
vn 0.000000 1.000000 0.000000
vn 0.000000 1.000000 0.000000
vn 0.000000 1.000000 0.000000
vn 0.000000 1.000000 0.000000
vn 0.000000 1.000000 0.000000
vn 0.000000 1.000000 0.000000
vn 0.000000 1.000000 0.000000
s 1
g pPlane1
usemtl lambert4SG
f 1/1/1 7/7/2 8/8/3 3/3/4
f 5/5/5 2/2/6 4/4/7 6/6/8
f 7/7/2 5/5/5 6/6/8 8/8/3
